<svg width="157" height="91" viewBox="0 0 157 91" fill="none" xmlns="http://www.w3.org/2000/svg">
<path d="M147.399 72.0088C44.234 101.661 62.1611 22.3118 12.8099 4.61198C108.254 3.77632 58.9091 80.0791 147.399 72.0088Z" fill="url(#paint0_linear)"/>
<defs>
<linearGradient id="paint0_linear" x1="85.2573" y1="19.0804" x2="71.2113" y2="71.5008" gradientUnits="userSpaceOnUse">
<stop stop-color="#B79771"/>
<stop offset="1" stop-color="#D1BDA5"/>
</linearGradient>
</defs>
</svg>
