<svg width="11" height="22" viewBox="0 0 11 22" fill="none" xmlns="http://www.w3.org/2000/svg">
<path d="M0.647008 12.7756H2.81923V21.3116C2.81923 21.6911 3.10823 21.9991 3.46624 21.9991L6.92299 22C7.281 22 7.56999 21.6911 7.56999 21.3125V12.7765H9.62921C9.9553 12.7765 10.2305 12.518 10.271 12.1743L10.7007 8.50758C10.749 8.09875 10.4479 7.73483 10.0588 7.73483H7.56999C7.66748 5.46975 7.19473 4.79967 8.58105 4.79967C9.51965 4.6805 11 5.18558 11 4.11217V0.83325C11 0.4895 10.761 0.198917 10.441 0.152167C10.1701 0.11275 9.09952 0 7.77186 0C1.72449 0 2.96934 7.12433 2.82009 7.73392H0.647008C0.28986 7.73392 0 8.04192 0 8.42142V12.0881C0 12.4676 0.28986 12.7756 0.647008 12.7756ZM1.29402 9.10983H3.46624C3.82339 9.10983 4.11325 8.80183 4.11325 8.42233V5.53392C4.11325 2.89117 5.44608 1.37592 7.771 1.37592C8.52843 1.37592 9.22547 1.41533 9.70512 1.45567V3.42558C9.35833 3.6135 6.27512 2.61525 6.27512 5.89783V8.42325C6.27512 8.80275 6.56498 9.11075 6.92212 9.11075H9.32554L9.05639 11.4024H6.92212C6.56498 11.4024 6.27512 11.7104 6.27512 12.0899V20.625H4.11411V12.089C4.11411 11.7095 3.82425 11.4015 3.4671 11.4015H1.29402V9.10983Z" fill="white"/>
</svg>
