<svg width="123" height="57" viewBox="0 0 123 57" fill="none" xmlns="http://www.w3.org/2000/svg">
<path d="M28.4633 56.8894C20.8751 56.8894 13.7349 53.9686 8.35894 48.656C2.96305 43.3317 -0.00468652 36.2384 5.55521e-06 28.7018C-0.00468652 21.1639 2.96305 14.0766 8.35894 8.74636C13.7396 3.43728 20.8821 0.512939 28.4786 0.512939H28.488C36.0668 0.512939 43.2023 3.43728 48.5876 8.74636L61.5002 21.4994C66.3542 16.71 74.4117 8.7534 74.4117 8.7534C79.7876 3.44197 86.9243 0.514113 94.5114 0.514113H94.5207C110.226 0.514113 123 13.1616 123 28.7018C123 36.2443 120.027 43.3305 114.633 48.6548C109.257 53.9674 102.12 56.8882 94.5219 56.8882C94.5184 56.8882 94.5137 56.8882 94.5137 56.8882C86.9348 56.8882 79.7993 53.9674 74.4023 48.6595L61.4955 35.9065C56.6463 40.6947 48.5865 48.6537 48.5865 48.6537C43.1812 53.9651 36.0457 56.8871 28.4774 56.8871C28.4774 56.8894 28.468 56.8894 28.4633 56.8894ZM68.7213 28.6361L81.5999 41.3645C85.058 44.7639 89.6468 46.6408 94.5114 46.6408H94.5207C99.4005 46.6408 103.991 44.7663 107.433 41.3645C110.857 37.9803 112.748 33.4818 112.748 28.7018C112.748 18.8109 104.571 10.7651 94.516 10.7651C89.641 10.7651 85.058 12.642 81.607 16.0449C75.6856 21.8959 71.6152 25.9135 68.7213 28.6361ZM28.4868 10.7651H28.4774C23.5918 10.7651 19.0076 12.6361 15.566 16.0402C12.1325 19.4267 10.251 23.9229 10.251 28.7018C10.251 33.4818 12.1325 37.9803 15.566 41.3645C19.0076 44.7663 23.5929 46.6408 28.468 46.6408H28.4727C33.3372 46.6408 37.9272 44.7639 41.3912 41.3551C47.3161 35.5076 51.3806 31.49 54.2733 28.7721L41.3853 16.0402C37.9378 12.6361 33.3513 10.7651 28.4868 10.7651Z" fill="#5C5C5C"/>
</svg>
