<svg width="14" height="16" viewBox="0 0 14 16" fill="none" xmlns="http://www.w3.org/2000/svg">
<path d="M13.25 7.56699C13.5833 7.75944 13.5833 8.24056 13.25 8.43301L1.25 15.3612C0.916665 15.5537 0.5 15.3131 0.5 14.9282L0.5 1.0718C0.5 0.686895 0.916667 0.446334 1.25 0.638784L13.25 7.56699Z" fill="white"/>
</svg>
