<svg width="286" height="152" viewBox="0 0 286 152" fill="none" xmlns="http://www.w3.org/2000/svg">
<path d="M271.253 28.6673C106.222 -5.35895 108.121 86.8001 47.2515 130.288C39.3251 135.951 30.3343 140.788 19.772 144.415C30.7974 144.034 40.79 143.217 49.8767 142.022C184.691 124.284 120.117 23.2075 271.253 28.6673Z" fill="url(#paint0_linear)"/>
<defs>
<linearGradient id="paint0_linear" x1="153.466" y1="116.222" x2="131.786" y2="35.3119" gradientUnits="userSpaceOnUse">
<stop stop-color="#B79771"/>
<stop offset="1" stop-color="#CCB69B"/>
</linearGradient>
</defs>
</svg>
